…
Nettoyage des données
---------------------

Regardons les données

``` r
offres  # Le tibble gère l'affichage pour ne pas remplir la console
```

    ## # A tibble: 240 × 6
    ##       Periode  OEE_A OEE_B OEE_C Total_France Total_DOM
    ##        <date>  <int> <int> <int>        <int>     <int>
    ## 1  1996-01-01 101200 50800 19800       171800      3900
    ## 2  1996-02-01 103100 50000 21100       174200      4300
    ## 3  1996-03-01 102800 49900 23000       175700      5500
    ## 4  1996-04-01 103000 52400 22900       178300      5100
    ## 5  1996-05-01 100900 55900 23900       180700      4800
    ## 6  1996-06-01 104600 60200 23700       188500      4900
    ## 7  1996-07-01 102000 60100 25800       187900      5200
    ## 8  1996-08-01 104000 64200 25700       193900      5600
    ## 9  1996-09-01  99800 65700 28100       193600      5100
    ## 10 1996-10-01  97100 64800 35100       197000      5200
    ## # ... with 230 more rows
…
